{"hash":"02799b688b4cb7ace869e49ff69fbf95eb6f42e6","data":{"tag":{"title":"algorithms","path":"/tag/algorithms/","belongsTo":{"totalCount":12,"pageInfo":{"totalPages":2,"currentPage":2},"edges":[{"node":{"id":"f0bc8f5215664a8dc315c8444ce617be","title":"Сортировка событий","content":"","date":"2022-07-24T00:00:00.000Z","path":"/sortirovka-sobytij/","icon":"fas fa-code","image":"null","order":8,"category":null,"tags":[{"title":"algorithms","path":"/tag/algorithms/"},{"title":"java","path":"/tag/java/"},{"title":"алгоритмы","path":"/tag/%D0%B0%D0%BB%D0%B3%D0%BE%D1%80%D0%B8%D1%82%D0%BC%D1%8B/"}],"headings":[]}},{"node":{"id":"e6e65d2d9d8ae4c94f59d2f36ce4023e","title":"Деревья","content":"","date":"2022-07-24T00:00:00.000Z","path":"/derevya/","icon":"fas fa-code","image":"null","order":9,"category":null,"tags":[{"title":"algorithms","path":"/tag/algorithms/"},{"title":"java","path":"/tag/java/"},{"title":"алгоритмы","path":"/tag/%D0%B0%D0%BB%D0%B3%D0%BE%D1%80%D0%B8%D1%82%D0%BC%D1%8B/"}],"headings":[]}}]}},"relatedTag":null},"context":{}}