{"hash":"58ef2c43d4e5b2ce5ef6be5cdf3a7b96ba62364f","data":{"category":{"title":"math","path":"/category/math/","belongsTo":{"totalCount":12,"pageInfo":{"totalPages":4,"currentPage":1},"edges":[{"node":{"id":"ee3f60ee216bc492b44e3129e81ba236","title":"\\\\Алгебра множеств\\\\ Векторы и прямые произведения","content":"\n## Векторы. Проекция вектора\n\n**Вектор** (или кортеж) - это упорядоченный набор элементов. Например, (0; 1; 3). Элементы вектора называются _координатами_ или _компонентами_. Число координат - _длина вектора (размерность)_.\n\nКоординаты вектора могут совпадать (0; 5; 4; 5).\n\nДва вектора **_равны_**, если они имеют одинаковую длину и равны соответствующие координаты:  \n$(а_1, а_2, ....., а_m)$ и $(b_1, b_2, ...., b_n)$  \n$m = n, a_1 = b_1, a_2 = b_2, ....., a_m = b_n.$\n\n**Проекцией вектора ** $V$ **на ось ** $i$ $(пр_i V)$ называется его i-я компонента.  \n$V = (a; b; c; d),  пр_2 V = (b)$.\n\n**Проекцией вектора ** $V = (a_1, a_2, ...., a_n)$ **на оси** с номерами $i_1, i_2,...., i_k$ называется вектор $(a_{i1}, a_{i2}, ...., a_{ik})$ длины $k$: $пр_{i1,..,ik} V$.\n\n## Прямое произведение\n\n**Прямым (декартовым) произведением** множеств A и B $( A \\times B )$ называется множество всех векторов (a; b), таких, что $a \\in А, b \\in В$:  \n$A \\times B = \\left\\{ { x : x = (a; b), a \\in А, b \\in В} \\right\\}$.  \nЕсли A = B, то $A \\times A = A^2$.  \n\nАналогично для нескольких множеств. **Прямым произведением множеств ** $A_1 \\times A_2 \\times .... \\times A_m$ называется множество всех векторов длины m, таких, что $a_1 \\in А_1, a_2 \\in А_2, ...., a_m \\in A_m (a_1, a_2, ..., a_m)$.  \n$A_1 \\times A_2 \\times .... \\times A_m = \\left\\{ {x: x=(a_1, a_2, ..., a_m), a_1 \\in A_1, a_2 \\in A_2, ..., a_m \\in A_m} \\right\\}$.\n\n## Теорема о мощности прямого произведения\n\nПусть $A_1, A_2, ..., A_n$ - конечные множества. Соответственно мощности этих множеств равны: $\\left| A_1 \\right| = m_1, \\left| A2 \\right| = m_2, ..., \\left| A_n \\right| = m_n$.\n\nТогда мощность прямого произведения n множеств равна произведению мощностей соответствующих множеств, т.е. $\\left| A_1 \\times A_2 \\times A_3 \\times ... \\times A_n \\right| = m_1 \\cdot m_2 \\cdot ... \\cdot m_n$.\n\n**_Следствие: _** $\\left| A^n \\right| = \\left| A \\right|^n$\n","date":"2020-08-01T00:00:00.000Z","icon":"null","image":"null","emoji":"🧮","path":"/algebra-mnozhestv-vektory-i-pryamye-proizvedeniya/","category":{"title":"math","path":"/category/math/"},"tags":[{"title":"math","path":"/tag/math/"},{"title":"sets","path":"/tag/sets/"}],"headings":[{"value":"Векторы. Проекция вектора","anchor":"#векторы-проекция-вектора"},{"value":"Прямое произведение","anchor":"#прямое-произведение"},{"value":"Теорема о мощности прямого произведения","anchor":"#теорема-о-мощности-прямого-произведения"}]}},{"node":{"id":"f631fc79d246bcc351dd8ad219edf3a6","title":"\\\\Алгебра множеств\\\\ Нахождение мощности объединения множеств","content":"\n## Мощность объединения двух множеств\n\n$\\left| А \\cup В \\right| = \\left| A \\right| + \\left| B \\right| - \\left| А \\cap В \\right|$\n\n## Мощность объединения трех множеств\n\n$\\left| А \\cup В \\cup С \\right|= \\left| A \\right| + \\left| B \\right| + \\left| C \\right| - \n\\left| А \\cap В  \\right| - \\left| А \\cap С \\right| - \\left| В \\cap С \\right| + \\left| А \\cap В \\cap С \\right|$\n\n## Мощность объединения $n$ множеств\n\nТеорема.  \n$А_1, А_2, ....... А_n$ - некоторые множества, тогда мощность объединения n множеств определяется по формуле\n\n$\\left| А_1 \\cup А_2 \\cup .... \\cup A_n \\right|=\\left| A_1 \\right| + \\left| A_2 \\right| +...+\\\\ + \\left| A_n \\right| -  \\left[ \\left| А_1 \\cap А_2 \\right| + \\left| А_1 \\cap А_3 \\right| + ...+ \\left| A_{n-1} \\cap A_n \\right| \\right] + \\\\ \\left[  \\left| А_1 \\cap А_2  \\cap А_3 \\right| + \\left| А_1 \\cap А_2  \\cap А_4 \\right| + ... + \\left| A_{n-2} \\cap А_{n-1} \\cap А_n \\right| \\right] -...\\\\ + (-1)^{n-1}  \\left| А_1 \\cap А_2  \\cap....A_n \\right| .\\\\$","date":"2020-08-01T00:00:00.000Z","icon":"null","image":"null","emoji":"🧮","path":"/algebra-mnozhestv-nahozhdenie-moshhnosti-obedineniya-mnozhestv/","category":{"title":"math","path":"/category/math/"},"tags":[{"title":"math","path":"/tag/math/"},{"title":"sets","path":"/tag/sets/"}],"headings":[{"value":"Мощность объединения двух множеств","anchor":"#мощность-объединения-двух-множеств"},{"value":"Мощность объединения трех множеств","anchor":"#мощность-объединения-трех-множеств"},{"value":"Мощность объединения n множеств","anchor":"#мощность-объединения-n-множеств"}]}},{"node":{"id":"6f730f4099d158f305bff91df091cdd7","title":"\\\\Алгебра множеств\\\\ Законы алгебры множеств","content":"\n## Что такое алгебра множеств\n\nАлгебра множеств в теории множеств — это непустая система подмножеств некоторого множества $X$, замкнутая относительно операций дополнения (разности) и объединения (суммы).\n\n## Законы алгебры множеств\n\n### - коммутативности\n$А \\cup В = В \\cup А;   А \\cap В = В \\cap А;$\n### - ассоциативности\n$А \\cup ( B \\cup C ) = ( A \\cup B ) \\cup C,$\n$A \\cap ( B \\cap C ) = ( A \\cap B ) \\cap C;$\n### - дистрибутивности\n- пересечения относительно объединения:  \n$A \\cap ( B \\cup C ) = ( A \\cap B ) \\cup ( A \\cap C );$\n- объединение относительно пересечения:  \n$A \\cup ( B \\cap C ) = ( A \\cup B ) \\cap ( A \\cup C);$\n### - идемпотентности\n$A \\cup A = A,\tA \\cap A = A;$\n### - действия с универсальным и пустым множествами\n$A \\cup \\emptyset = A,\tA \\cap \\emptyset = \\emptyset,$  \n$A \\cup E = E,\tA \\cap E = A;$  \n$A \\cup \\overline A = E,  \tA \\cap \\overline A = \\emptyset;$\n### - де Моргана\n$\\overline {A \\cap B}  = \\overline A  \\cup \\overline B,$  \n$\\overline {A \\cup B}  = \\overline A  \\cap \\overline B ;$\n### - двойного дополнения\n$\\overline{\\overline A}  = A.$","date":"2020-08-01T00:00:00.000Z","icon":"null","image":"null","emoji":"🧮","path":"/algebra-mnozhestv-zakony-algebry-mnozhestv/","category":{"title":"math","path":"/category/math/"},"tags":[{"title":"math","path":"/tag/math/"},{"title":"sets","path":"/tag/sets/"}],"headings":[{"value":"Что такое алгебра множеств","anchor":"#что-такое-алгебра-множеств"},{"value":"Законы алгебры множеств","anchor":"#законы-алгебры-множеств"}]}}]}},"relatedCategory":null},"context":{}}