{"hash":"ea11e65754b422a33e960d8094a9c0d3fc3a24ab","data":{"category":{"title":"math","path":"/category/math/","belongsTo":{"totalCount":6,"pageInfo":{"totalPages":2,"currentPage":2},"edges":[{"node":{"id":"28b342b5b8966498b05d334f8386f9e9","title":"3. Принцип Дирихле","content":"\n## Определение\n\nПусть в 𝑛 ящиков рассаживают 𝑛 + 1 кроликов. Тогда в любом случае найдётся ящик с двумя или более кроликами.\n\n## Пример\n\nИмеются монеты: 1, 2, 5, 10 руб.\nКаково минимальное количество таких монет, чтобы всегда нашлись 6 монет одного достоинства?\n\n_Решение_  \nПредположим, что монет достоинством 1 не больше 5ти  \nи монет достоинством 2 не больше 5ти  \nи достоинством 5 не больше 5ти  \nи достоинством 10 не больше 5ти\n\nТогда в сумме получается 20, а чтобы было 6 монет одного достоинства тогда соответсвенно в одной из категорий будет 6 монет и в сумме получается 21.\n","date":"2020-04-21T00:00:00.000Z","icon":"null","image":"null","emoji":"👾","path":"/3-princzip-dirihle/","category":{"title":"math","path":"/category/math/"},"tags":[{"title":"math","path":"/tag/math/"},{"title":"combinatorics","path":"/tag/combinatorics/"}],"headings":[{"value":"Определение","anchor":"#определение"},{"value":"Пример","anchor":"#пример"}]}},{"node":{"id":"72e4985319718d1babd1fc967932a9c2","title":"2. Правило умножения","content":"\n## Определение\n\nКоличество способов выбрать ровно один объект из множества A и вслед за ним ровно один объект из множества B равно |A| ⋅ |B|.\n\n## Следствие\n\nПусть даны множества объектов ${A_{1}}, ...., {A_{k}}$ и $|{A_{i}}| = {n_{i}}$.  \nТогда число способов извлечь сначала один объект из ${A_{1}}$, вслед за ним один объект из ${A_{2}}$, и так далее вплоть до объекта из ${A_{k}}$ равно ${n_{1}} {n_{2}} {n_{3}} ... {n_{k}}$.\n\n## Пример\n\nНайти количество автомобильных номеров с определенным номером региона (за регионом могут\nбыть зафиксированы несколько номеров региона). На первой позиции номера стоит буква русского алфавита,\nследующие три позиции заняты цифрами, а последние две — опять буквы русского алфавита. Причем в\nреальных номерах используются только 12 букв, которые имеют аналоги в латинском алфавите:\n\n$|{A_{1}}| = |{A_{5}}| = |{A_{6}}| = 12, |{A_{2}}| = |{A_{3}}| = |{A_{4}}| = 10$\n\nСогласно следствию из правила умножения, число номеров:\n${n_{1}} {n_{2}} {n_{3}} {n_{4}} {n_{5}} {n_{6}} = 12^3 * 10^3 = 1728000$.\n","date":"2020-04-20T00:00:00.000Z","icon":"null","image":"null","emoji":"👾","path":"/2-pravilo-umnozheniya/","category":{"title":"math","path":"/category/math/"},"tags":[{"title":"math","path":"/tag/math/"},{"title":"combinatorics","path":"/tag/combinatorics/"}],"headings":[{"value":"Определение","anchor":"#определение"},{"value":"Следствие","anchor":"#следствие"},{"value":"Пример","anchor":"#пример"}]}},{"node":{"id":"df22c976c882f1c9e6390399ea1d445d","title":"1. Правило сложения","content":"\n## Определение\n\nКоличество способов выбрать один объект из множества 𝐴 или один объект из множества 𝐵 равно |𝐴| + |𝐵|.\n\n## Пример\n\nЕсли $A$ — множество букв русского алфавита, $B$ — множество цифр:\n\n$A = {а,б,...,ё, ...,я}$, $B = {1, 2, ..., 9, 0}$,\n\nто $|A| = 33, |B| = 10$, а выбрать или букву или цифру можно 43 способами.\n","date":"2020-04-19T00:00:00.000Z","icon":"null","image":"null","emoji":"👾","path":"/1-pravilo-slozheniya/","category":{"title":"math","path":"/category/math/"},"tags":[{"title":"math","path":"/tag/math/"},{"title":"combinatorics","path":"/tag/combinatorics/"}],"headings":[{"value":"Определение","anchor":"#определение"},{"value":"Пример","anchor":"#пример"}]}}]}},"relatedCategory":null},"context":{}}