{"hash":"d2161edf00cde5c144f9d6b11ff17d67d3b77d85","data":{"tag":{"title":"combinatorics","path":"/tag/combinatorics/","belongsTo":{"totalCount":4,"pageInfo":{"totalPages":2,"currentPage":2},"edges":[{"node":{"id":"72e4985319718d1babd1fc967932a9c2","title":"Правило умножения","content":"\n## Определение\n\nКоличество способов выбрать ровно один объект из множества 𝐴 и вслед за ним ровно один объект из множества 𝐵 равно |𝐴| ⋅ |𝐵|.\n\n## Следствие\n\nПусть даны множества объектов ${А_{1}}, ...., {А_{k}}$ и $|{А_{i}}| = {n_{i}}$.  \nТогда число способов извлечь сначала один объект из ${А_{1}}$, вслед за ним один объект из ${А_{2}}$, и так далее вплоть до объекта из ${А_{k}}$ равно ${n_{1}} {n_{2}} {n_{3}} ... {n_{k}}$.\n\n## Пример\n\nНайти количество автомобильных номеров с определенным номером региона (за регионом могут\nбыть зафиксированы несколько номеров региона). На первой позиции номера стоит буква русского алфавита,\nследующие три позиции заняты цифрами, а последние две — опять буквы русского алфавита. Причем в\nреальных номерах используются только 12 букв, которые имеют аналоги в латинском алфавите:\n\n$|{А_{1}}| = |{А_{5}}| = |{А_{6}}| = 12, |{А_{2}}| = |{А_{3}}| = |{А_{4}}| = 10$\n\nСогласно следствию из правила умножения, число номеров:\n${n_{1}} {n_{2}} {n_{3}} {n_{4}} {n_{5}} {n_{6}} = 12^3 * 10^3 = 1728000$.\n","date":"2020-04-19T00:00:00.000Z","path":"/pravilo-umnozheniya/","icon":"null","image":"null","emoji":"👾","category":{"title":"math","path":"/category/math/"},"tags":[{"title":"math","path":"/tag/math/"},{"title":"combinatorics","path":"/tag/combinatorics/"}],"headings":[{"value":"Определение","anchor":"#определение"},{"value":"Следствие","anchor":"#следствие"},{"value":"Пример","anchor":"#пример"}]}}]}},"relatedTag":null},"context":{}}