{"hash":"bee69a36e5ee45aa5bee1d4a86a0a6f36f153b53","data":{"tag":{"title":"math","path":"/tag/math/","belongsTo":{"totalCount":6,"pageInfo":{"totalPages":2,"currentPage":2},"edges":[{"node":{"id":"f4de4db0830ece2002433a6adeb916c4","title":"Основные комбинаторные величины","content":"\n## Определения\n\nИмеется массив А = {${a_{1}, ..., a_{n}}$}\n\n1. _k-сочетания без повторений_, $C_{n}^{k}$ - извлекаем сразу одновременно несколько элементов;\n2. _k-размещения без повторений_, $A_{n}^{k}$ - последовательно извлекаем несколько элементов и имеем вполне определенную последовательность элементов;\n3. _k-сочетания с повторениями_, $\\overline{C_{n}^{k}}$ - извлекаем сразу одновременно несколько элементов из массива с повторяющимися элементами;\n4. _k-размещения с повторениями_, $\\overline{A_{n}^{k}}$ - последовательно извлекаем несколько элементов из массива с повторяющимися элементами;\n\n## Факториал\n\n_n-факториал_ - это произведение чисел от 1 до n;\n\n$n! = (n-1)! \\times n$\n\n$5! = 1 \\times 2 \\times 3 \\times 4 \\times 5 = 120$\n\n$0! = 1, 1! = 1$","date":"2020-04-27T00:00:00.000Z","path":"/osnovnye-kombinatornye-velichiny/","icon":"null","image":"null","emoji":"👾","category":{"title":"math","path":"/category/math/"},"tags":[{"title":"math","path":"/tag/math/"},{"title":"combinatorics","path":"/tag/combinatorics/"}],"headings":[{"value":"Определения","anchor":"#определения"},{"value":"Факториал","anchor":"#факториал"}]}},{"node":{"id":"df22c976c882f1c9e6390399ea1d445d","title":"Правило сложения","content":"\n## Определение\n\nКоличество способов выбрать один объект из множества 𝐴 или один объект из множества 𝐵 равно |𝐴| + |𝐵|.\n\n## Пример\n\nЕсли $A$ — множество букв русского алфавита, $B$ — множество цифр:\n\n$A = {а,б,...,ё, ...,я}$, $B = {1, 2, ..., 9, 0}$,\n\nто $|A| = 33, |B| = 10$, а выбрать или букву или цифру можно 43 способами.\n","date":"2020-04-19T00:00:00.000Z","path":"/pravilo-slozheniya/","icon":"null","image":"null","emoji":"👾","category":{"title":"math","path":"/category/math/"},"tags":[{"title":"math","path":"/tag/math/"},{"title":"combinatorics","path":"/tag/combinatorics/"}],"headings":[{"value":"Определение","anchor":"#определение"},{"value":"Пример","anchor":"#пример"}]}},{"node":{"id":"72e4985319718d1babd1fc967932a9c2","title":"Правило умножения","content":"\n## Определение\n\nКоличество способов выбрать ровно один объект из множества A и вслед за ним ровно один объект из множества B равно |A| ⋅ |B|.\n\n## Следствие\n\nПусть даны множества объектов ${A_{1}}, ...., {A_{k}}$ и $|{A_{i}}| = {n_{i}}$.  \nТогда число способов извлечь сначала один объект из ${A_{1}}$, вслед за ним один объект из ${A_{2}}$, и так далее вплоть до объекта из ${A_{k}}$ равно ${n_{1}} {n_{2}} {n_{3}} ... {n_{k}}$.\n\n## Пример\n\nНайти количество автомобильных номеров с определенным номером региона (за регионом могут\nбыть зафиксированы несколько номеров региона). На первой позиции номера стоит буква русского алфавита,\nследующие три позиции заняты цифрами, а последние две — опять буквы русского алфавита. Причем в\nреальных номерах используются только 12 букв, которые имеют аналоги в латинском алфавите:\n\n$|{A_{1}}| = |{A_{5}}| = |{A_{6}}| = 12, |{A_{2}}| = |{A_{3}}| = |{A_{4}}| = 10$\n\nСогласно следствию из правила умножения, число номеров:\n${n_{1}} {n_{2}} {n_{3}} {n_{4}} {n_{5}} {n_{6}} = 12^3 * 10^3 = 1728000$.\n","date":"2020-04-19T00:00:00.000Z","path":"/pravilo-umnozheniya/","icon":"null","image":"null","emoji":"👾","category":{"title":"math","path":"/category/math/"},"tags":[{"title":"math","path":"/tag/math/"},{"title":"combinatorics","path":"/tag/combinatorics/"}],"headings":[{"value":"Определение","anchor":"#определение"},{"value":"Следствие","anchor":"#следствие"},{"value":"Пример","anchor":"#пример"}]}}]}},"relatedTag":{"id":"7b964d4365e95e31d4e1c1fa550404c5","title":"math","path":"/tag/math/","related":[]}},"context":{}}