{"hash":"7783b48d4c1d73fdd39dd248e548414e3a71e66c","data":{"category":{"title":"interview","path":"/category/interview/","belongsTo":{"totalCount":16,"pageInfo":{"totalPages":2,"currentPage":2},"edges":[{"node":{"id":"eac50fcd8d5b67134863f3f1d1b1ec1f","title":"API тестирование","content":"\n## Общая теория\n\n- https://www.guru99.com/api-testing.html\n\n## Postman\n\n- https://www.guru99.com/postman-tutorial.html\n\n## Что такое JSON\n\n- https://habr.com/ru/post/554274/\n- https://qaautomation.expert/2021/06/25/how-to-send-a-json-xml-file-as-payload-to-request-using-rest-assured/\n\nhttps://ruseller.com/lessons.php?rub=28&id=1212\n\nhttps://habr.com/ru/post/31225/\n\nhttps://www.youtube.com/watch?v=QYg5z6EGOk4\n\n\n## Тестирование API\n\n- Понимание клиент-серверной архитектуры, толстый тонкий клиенты\n- Взаиодействие сервера клиента и БД\n- REST vs SOAP\n- JSON vs XML vs WSDL\n- Response codes: 418, 403, 502, 302, 204\n- HTTP/HTTPS структура и методы\n- Аутентификация и авторизация\n- Mock servers\n- Написание тестов, assertions, запуск коллекций\n- Уровни переменных и работа с ними\n- Токены, pre-request scripts, debugging API\n- Monitoring and reports\n- Работа со Swagger\n- Описение Rest запросов (Open API)\n* Что такое Open API\n* Типы авторизации (basic auth, oAuth, jwt что-то типо того)\n* GET vs POST, POST vs PUT + идемпотентность\n* http 1.1 vs http 2\n* CSRF token\n\n\n\n## API\nhttps://atesting.ru/voprosy-na-sobesedovanii-po-testirovaniu-api/","date":"2022-05-26T00:00:00.000Z","icon":"fas fa-bug","image":"null","path":"/api-testirovanie/","order":8,"category":{"title":"interview","path":"/category/interview/"},"tags":[{"title":"qa","path":"/tag/qa/"},{"title":"собеседование","path":"/tag/%D1%81%D0%BE%D0%B1%D0%B5%D1%81%D0%B5%D0%B4%D0%BE%D0%B2%D0%B0%D0%BD%D0%B8%D0%B5/"},{"title":"interview","path":"/tag/interview/"},{"title":"api","path":"/tag/api/"}],"headings":[{"value":"Общая теория","anchor":"#общая-теория"},{"value":"Postman","anchor":"#postman"},{"value":"Что такое JSON","anchor":"#что-такое-json"},{"value":"Тестирование API","anchor":"#тестирование-api"},{"value":"API","anchor":"#api"}]}},{"node":{"id":"9f205e84a1cb63966bc269b6cc70a787","title":"Тестирование Mobile","content":"\n\n## Тестирование Mobile\n\n- Особенности тестирования мобильных приложений\n- Требования AppStore и PlayMarket к релизу\n- Классификация мобильных устройств и расширений\n- Виды мобильных приложений\n- Уровни тестирования mobile\n- Виды тестирования mobile\n- Симуляторы и эмуляторы\n- Составление юзабилити тестов\n- Тестирование утечки памяти\n- Тестирование жнергопотребления\n- Тестирование прерываний и человеческого фактора\n- Эвристики и мнемоники\n- Типичные баги\n- Тестирование игр на мобильных устройствах\n\nПод мобильное тестирование придется вооружиться знаниями работы драйверов Espresso, XCUITest, либо же иметь представление о работе с Appium.\n\nДополнительно плюсом будут навыки конфигурации фермы устройств и установка нужных эмуляторов, а также симуляторов.\n\n## особенности мобильного тестирования\n\nhttps://www.softwaretestinghelp.com/beginners-guide-to-mobile-application-testing/\nhttps://testlio.com/blog/10-mobile-testing-types-and-approaches/","date":"2022-05-26T00:00:00.000Z","icon":"fas fa-bug","image":"null","path":"/testirovanie-mobile/","order":9,"category":{"title":"interview","path":"/category/interview/"},"tags":[{"title":"qa","path":"/tag/qa/"},{"title":"bug report","path":"/tag/bug%20report/"}],"headings":[{"value":"Тестирование Mobile","anchor":"#тестирование-mobile"},{"value":"особенности мобильного тестирования","anchor":"#особенности-мобильного-тестирования"}]}},{"node":{"id":"3c8ce22e762e91d5cff223062f22176b","title":"SQL","content":"\n## Задачи\n\n- http://www.sql-tutorial.ru/\n\n- https://www.sql-ex.ru/\n\nhttps://sqlzoo.net/wiki/SQL_Tutorial\n\n## Обучающие курсы\n\n- https://www.freecodecamp.org/news/sql-and-databases-full-course/  \nhttps://www.youtube.com/watch?v=HXV3zeQKqGY\n\n- https://stepik.org/course/51562/promo\n\n## Статья со списком книг\n\n- https://progerlib.ru/sql-books\n\n## Статьи по теме\n\n- https://artoftesting.com/sql-for-testers\n","date":"2022-05-26T00:00:00.000Z","icon":"fas fa-bug","image":"null","path":"/sql/","order":10,"category":{"title":"interview","path":"/category/interview/"},"tags":[{"title":"qa","path":"/tag/qa/"},{"title":"собеседование","path":"/tag/%D1%81%D0%BE%D0%B1%D0%B5%D1%81%D0%B5%D0%B4%D0%BE%D0%B2%D0%B0%D0%BD%D0%B8%D0%B5/"},{"title":"interview","path":"/tag/interview/"},{"title":"sql","path":"/tag/sql/"}],"headings":[{"value":"Задачи","anchor":"#задачи"},{"value":"Обучающие курсы","anchor":"#обучающие-курсы"},{"value":"Статья со списком книг","anchor":"#статья-со-списком-книг"},{"value":"Статьи по теме","anchor":"#статьи-по-теме"}]}},{"node":{"id":"8b4d70813978c867a6a091289198c743","title":"Требования на вакансии QA Automation Engineer","content":"\n\n## QA\n- Основы тест-дизайна\n- Жизненный цикл ПО и ПАК\n- методики тестирования\n\n- Теория тестирования UI: web, mobile\n- Теория тестирования API: RESTful (типы запросов, JSON over REST, Websocket), SOAP\n- Понимание работы клиент-серверных приложений\n- Работа с XML, JSON\n- Создание и выполнения тестовых планов и тестовых сценариев\n- Знание Unix/Linux операционных систем и команд пользователя\n- базовые навыки по работе с компьютерными сетями (TCP/IP)\n- Agile-практики (Scrum, Kanban)\n- Понимание принципов работы реляционных СУБД, знание транзакций БД, Опыт работы с БД на уровне написания простых запросов\n- Инструменты Web Debugging (fiddler, Wireshark, burp)\n\n## Программирование\n- Уверенное знание Python\n- Уверенное знание Java\n- Уверенное знание Kotlin\n- Знание bash\n- паттерны проектирования\n- code-review\n- объектно-ориентированное проектирование\n\n## Библиотеки для автотестирования\n- PyTest(request???)/TestNG/JUnit\n- Selenium\n- Maven/Gradle\n- Selenide\n- Allure\n- Системы контроля версий: Git\n- CI/CD (Jenkins(написание pipelin'ов), TeamCity, Gitlab CI, Bitbucket Pipelines)\n- Gitlab\n- Cucumber\n- Appium\n- Postman, SoapUI, Charles proxy, Fiddler, консоль разработчика Chrome\n- Jira, Confluence\n- RestAssured\n- системами управления тестированием: TestRail\n- Kibana и Jaeger\n- DevOps: Selenoid, Selenium Grid, Docker приложения\n- Систем логирования: Splunk, Graylog, Kibana\n- SQL и БД (PostgreSQL)\n- Swift, XCUITest\n\n## Остальное\n- Нагрузочное тестирование\n- Ansible и Terraform ????\n- опыт работы в рамках MSA, SOA\n- владение инструментами для получения и анализа log'ов\n- опыт работы с DB и message broker;\n\nПроекты автоматизации ui web, ui mobile, api","date":"2020-05-01T00:00:00.000Z","icon":"fas fa-bug","image":"null","path":"/trebovaniya-na-vakansii-qa-automation-engineer/","order":11,"category":{"title":"interview","path":"/category/interview/"},"tags":[{"title":"qa","path":"/tag/qa/"}],"headings":[{"value":"QA","anchor":"#qa"},{"value":"Программирование","anchor":"#программирование"},{"value":"Библиотеки для автотестирования","anchor":"#библиотеки-для-автотестирования"},{"value":"Остальное","anchor":"#остальное"}]}},{"node":{"id":"bcc6d03e58eb0e67abad86a409225502","title":"Сайты для практики","content":"\n##  Потестить отдельные элементы\n\n- https://demoqa.com/auto-complete\n- https://demosite.executeautomation.com/index.html#\n- https://demoqa.com/\n- http://the-internet.herokuapp.com/\n- http://uitestingplayground.com/\n- https://www.w3schools.com/howto/\n- https://www.way2automation.com/demo.html\nеще один сайт с примерами разных элементов страницы для отработки взаимодействий в автотестах\n\n## Для тестирования API\n\n- https://jsonplaceholder.typicode.com/\n- https://reqres.in/\n- http://httpbin.org/\n\n- https://developer.marvel.com/docs\n- https://petstore.swagger.io/\n- https://ergast.com/mrd/\n- http://restful-booker.herokuapp.com/  \nhttp://restful-booker.herokuapp.com/apidoc/index.html\n- https://thinkingtester.com/new-api-and-ui-test-app/  \nhttps://thinking-tester-contact-list.herokuapp.com/\n\n## Для тестирования UI\n\n- https://www.zalando.co.uk/cart/\n\n- http://computer-database.gatling.io/computers\n\n- https://demo.guru99.com/\n\n- http://demowebshop.tricentis.com/\n\n- https://phptravels.com/demo\n\n- https://www.zazzle.com/\n\n- https://www.saucedemo.com/\n\n- https://www.globalsqa.com/website-automation-practice/\nhttps://www.globalsqa.com/demo-site/\n\n- http://automationpractice.com/index.php  \nпример интернет-магазина\n\n- https://blazedemo.com/index.php\n\n- https://phptravels.com/demo/  \nпример CRM системы, но формы логина не работают :(\n\n- https://github.com/TheJambo/ToDoInterviewTest\nhttp://todolist.james.am/#/\n\n- https://loginii.com/orangehrm-page  \nhttps://www.orangehrm.com/ - оригинал  \nhttps://www.softwaretestinghelp.com/free-online-software-testing-qa-training-course/ - тренинг по этому сайту;\nмного ссылок на web приложение, но тоже как то авторизация не отрабатывает\n\n- http://thelab.boozang.com/sortedList\n\n- https://www.opencart.com/\n\n- https://www.demoblaze.com/\n\n- https://www.globalsqa.com/angularJs-protractor/BankingProject/#/login\n\n- https://computer-database.gatling.io/computers\n- https://candymapper.com/\n\n- https://demowebsch.web-school.in/index.php/user/login  \nhttps://web-school.in/try-demo/  \nhttps://www.schoolerp.org/  \n\n- https://opensource-demo.orangehrmlive.com/  \nUsername : Admin | Password : admin123 )\n\n## Для тестирования мобильных приложений \n\n- https://github.com/fossasia/susi_android\n\n## Просто ресурсы\n\n- https://randomuser.me/changelog\nгенерация пользовательских данных\n\n- https://abstracta.us/blog/software-testing/best-demo-websites-for-practicing-different-types-of-software-tests/\n\n- https://www.blazemeter.com/blog/getting-started-jmeter-basic-tutorial\n\n- http://timvroom.com/selenium/playground/\n\n- https://www.softwaretestinghelp.com/sample-test-cases-testing-web-desktop-applications/\n\n\n- https://parabank.parasoft.com/parabank/index.htm\n\n- https://automationpanda.com/2021/12/29/want-to-practice-test-automation-try-these-demo-sites/\n\n- https://vc.ru/dev/199012-bystryy-start-gayd-po-avtomatizirovannomu-testirovaniyu-dlya-android-razrabotchika-jvm","date":"2022-05-22T00:00:00.000Z","icon":"fas fa-bug","image":"null","path":"/sajty-dlya-praktiki/","order":12,"category":{"title":"interview","path":"/category/interview/"},"tags":[{"title":"qa","path":"/tag/qa/"}],"headings":[{"value":" Потестить отдельные элементы","anchor":"#потестить-отдельные-элементы"},{"value":"Для тестирования API","anchor":"#для-тестирования-api"},{"value":"Для тестирования UI","anchor":"#для-тестирования-ui"},{"value":"Для тестирования мобильных приложений","anchor":"#для-тестирования-мобильных-приложений"},{"value":"Просто ресурсы","anchor":"#просто-ресурсы"}]}},{"node":{"id":"f8d301994acdf61e1e7f73a36e997909","title":"Пример резюме","content":"\nhttps://les-company.ru/sobesedovaniye-dlya-qa-rezyume-voprosy-na-interv-yu-peregovory-o-zarplate-poleznyye-ssylki/\n\nДиаграммы Исикавы!!!!\n\nhttps://www.englishdom.com/blog/kak-sostavit-rezyume-testirovshhika-na-anglijskom/\n\n\nhttps://zen.yandex.ru/media/qadecret/sobesedovanie-na-poziciiu-qaspecialistatestirovscika-kak-vybrat-luchshuiu-kompaniiu-5f117cbc1015531af6e4aad8\n\nAutomation QA Engineer\nАктивно интересуюсь сферой информационных технологий. Много времени посвящаю самообразованию — занимался под руководством ментора, прохожу курсы повышения квалификации.\nЧлен Санкт-Петербургского сообщества тестировщиков. Организовал и был спикером на внутреннем QA митапе First Line Software.\n\nTest Design, Manual Testing, Автоматизация тестирования, Unit Testing, Selenium, Allure, Java, RabbitMQ, Ruby, RoR, SQL, PL/SQL, Docker, Redis\n\nУчаствовал во внутреннем хакатоне First Line Software\n\nРабота\nАвтоматизация тестирования бекенда на Oracle.\nСоздание стендов.\nUnit testing.\nСоздание инструментов тестирования.\nПоддержка тестов на Robot Framework и Java.\n\nAutomation QA Engineer\n— Настройка CI(TeamCity) для запуска тестов.\n— Код-ревью.\n— Поддержка существующего фреймворка.\n— Поддержка и развитие тестовой инфраструктуры.\n— Написание тестов на Java + Selenium(JDI) + Maven + TestNG.\n— Взаимодействие с заказчиком и разработчиками для определения наиболее приоритетной функциональности.\n\nПроект:\nПлатформа, предоставляеющая сервисы, автоматизирующие процессы создания и заказа типовой маркетинговой продукции: брошюр, буклетов, рекламной почтовой корреспонденции, а также аналогичных материалов в электронном формате, включая создание лендинговых страниц(B2B, B2C).\n\nОбщепроектная деятельность:\n— Постановка задач на улучшение и доработку приложения (UI,UX, функциональные доработки).\n— Анализ бизнес модели и выработка решений по её улучшению.\n— Взаимодействие с командой разработчиков\n\nТест Дизайн и ручное тестирование:\n— Составление плана тестирования продукта;\n— Функциональное, UI, usability тестирование;\n— Тестирование приложений на платформах iOS, Android;\n— Выявление, описание и контроль устранения дефектов;\n— Срочное тестирование без документации;\n— Тестирование требований;\n— Тестирование в условиях часто меняющихся требований;\n\nАвтоматизированное тестирование:\n— Написание автотестов для тестирования приложения\n(связка Cucumber + Capybara(Selenium) + SitePrism)\n— Написание генератора тестовых данных\n\nРабота с программами и фреймворками:\n— Selenium\n— Cucumber\n— Jira, Trello\n— Test Rail\n\nПроекты:\n— https://ondoc.me\nМедицинская Информационая Система предоставляющая:\n— клиникам: дополнительные возможности возврата пациентов\n— врачам: возможность оказания телемедицинских услуг,\n— пациентам: возможность получить телемедицинские услуги, записаться на очный прием/обследование, получить мед. данные в удобном виде, не пропустить прием лекарств.\nСервисы представлены в WEB, iOS, Android.\n— Кастомные приложения для VIP клиентов.\n\nОбщепроектная деятельность:\n— Участие в составлении пользовательских инструкций\n— Анализ бизнес модели клиента и выработка решений по её улучшению.\n— Взаимодействие с командой разработчиков, руководителей проектов и т.д.\n— Менторство над junior qa.\n\nТест Дизайн и ручное тестирование:\n— Проработка и написание тестовой документации (чек-листы, тестовые сценарии)\n— Функциональное, UI, usability тестирование\n— Кроссбраузерное тестирование\n— Выявление, описание и контроль устранения дефектов\n— Срочное тестирование без документации\n— Определение наиболее приоритетной функциональности для регрессионного тестирования\n\nРабота с программами и фреймворками:\n— Selenium (Webdriver)\n— RSpec\n— Redmine, Jira\n— Test Rail","date":"2022-05-26T00:00:00.000Z","icon":"fas fa-bug","image":"null","path":"/primer-rezyume/","order":13,"category":{"title":"interview","path":"/category/interview/"},"tags":[{"title":"qa","path":"/tag/qa/"},{"title":"bug report","path":"/tag/bug%20report/"}],"headings":[]}}]}},"relatedCategory":{"id":"2585951235722f2f34ee70725f785e38","title":"interview","path":"/category/interview/","related":[{"id":"manual","path":"/category/manual/","title":"manual"},{"id":"automation","path":"/category/automation/","title":"automation"}]}},"context":{}}