{"hash":"bcf87b7fd6c712d073065eb153463027900f024a","data":{"tag":{"title":"math","path":"/tag/math/","belongsTo":{"totalCount":6,"pageInfo":{"totalPages":2,"currentPage":1},"edges":[{"node":{"id":"eb1486c9414a59e33e8965ceaf0281a8","title":"6. Сочетания с повторениями и без повторений","content":"\n## Число сочетаний без повторений\n\n${C_{n}^{k}} = \\frac{A_{n}^{k}}{k!} = \\frac{n!}{k!(n-k)!}$\n\n### Задача 1\n\nВ лабаратории имеется 10 разных подопытных мышей, нужно выбрать 5 мышей для эксперемента. Сколько есть способов это сделать?\n\n_Рассуждение_\n\nРешение задачи производится по формуле сочетаний без повторений, без повторений - т.к. мыши разные внабое и сочетания - т.к. нам не важна их последовательность.\n\n${C_{10}^{5}} = \\frac{10!}{5!(10-5)!} = \\frac{3628800}{120*120} = \\frac{3628800}{14400} = 252$\n\nОтвет: $252$\n\n### Задача 2\n\nЕсть 2е друзей, которые коллекционируют юбилейные монеты. У первого друга - 9 монет, у второго - 7 монет и эти монеты разные. Сколько есть способов обменять 2 монеты первого друга на 2 монеты второго друга.\n\n_Рассуждение_\n\nЧто произвести такой обмен нужно выбрать 2 монеты из набора первого друга, затем 2 монеты из набора второго и произвести обмен.\n\n${C_{9}^2} = \\frac{9!}{2!(9-2)!} = \\frac{362880}{2*5040} = \\frac{362880}{10080} = 36$  \n${C_{7}^2} = \\frac{7!}{2!(7-2)!} = \\frac{5040}{2*120} = \\frac{5040}{240} = 21$\n\nОтвет: $36 * 21 = 756$\n\n### Задача 3\n\nЕсть 28 костей домино. Сколькими способовами можно выдать 7 костей игроку, чтобы среди них был хотя бы 1 дубль?\n\n_Рассуждение_\n\nНужно посчитать общее количество способов выдать 7 костей игроку а затем из него вычесть количество способов когда ни один дубль[^Кость которая содержит сверху и снизу одинаковое число точек 0-0, 1-1, ..., 6-6] не выдан.\n\n- Общее количество способов выдать 7 костей - ${C_{28}^7}$\n- Чтобы посчитать количество способов когда ни один дубль не выдан, нужно выбирать кости из набора, который заранее не содержит дублей ($28 - 7 = 21$) - ${C_{21}^7}$\n\nОтвет: ${C_{28}^7} - {C_{21}^7}$\n\n## Число сочетаний с повторениями\n\n$\\overline{C_{n}^{k}} = {C_{n + k - 1}^k}$\n\n### Задача 1\n\nИмеется 4 сорта пироженых. Сколько существует способов выбрать 20 пироженых разных сортов?\n\n$\\overline{C_{4}^{20}} = {C_{23}^{20}} = \\frac{23!}{20!*3!} = \\frac{23*22*21}{6}$\n\n### Задача 2\n\nВ продаже имеются розы 3х цветов. Сколько есть способов составить букет из 7ми роз?\n\n$\\overline{C_{3}^{7}} = {C_{3 + 7 - 1}^7} = {C_{9}^{7}} = \\frac{9!}{7!(9-7)!} = \\frac{362880}{10080} = 36$\n\n### Задача 3\n\nВ тренировочной группе 5 новичков и 3 опытных альпиниста, в поход идут 6 человек и из них должно быть хотя бы 2 опытных.\nСколько есть способов составить такую группу?\n\nРассуждение\n\nТо что в группе должно быть хотя бы 2ое опытных альпиниста значит то что в группе может быть либо 2 либо 3 опятных альпиниста и никак иначе. Поэтому посчитав количество способов когда в группе 2 опытных и 3 опытных альпиниста и сложив их мы получим ответ на задачу.\n\n- 2 опытных  \n  Количество спосообов выбрать 2 опытных альпиниста из 3 - ${C_{3}^2}$  \n  Количество способов выбрать 4 новеньких альпиниста из 5 - ${C_{5}^4}$\n  Общее количество способов составить группу из 6 человек, где будет 2 опытных альпиниста: ${C_{3}^2} * {C_{5}^4}$ [^тк мы выбираем последовательно то используем правило умножения]\n\n- 3 опытных  \n  Количество спосообов выбрать 3 опытных альпиниста из 3 - ${C_{3}^3}$  \n  Количество способов выбрать 3 новеньких альпиниста из 5 - ${C_{5}^3}$  \n  Общее количество способов составить группу из 6 человек, где будет 3 опытных альпиниста: ${C_{3}^3} * {C_{5}^3}$\n\nОтвет: $({C_{3}^2} * {C_{5}^4}) + ({C_{3}^3} * {C_{5}^3})$\n","date":"2020-05-10T00:00:00.000Z","path":"/6-sochetaniya-s-povtoreniyami-i-bez-povtorenij/","icon":"null","image":"null","emoji":"👾","category":{"title":"math","path":"/category/math/"},"tags":[{"title":"math","path":"/tag/math/"},{"title":"combinatorics","path":"/tag/combinatorics/"}],"headings":[{"value":"Число сочетаний без повторений","anchor":"#число-сочетаний-без-повторений"},{"value":"Число сочетаний с повторениями","anchor":"#число-сочетаний-с-повторениями"}]}},{"node":{"id":"28b342b5b8966498b05d334f8386f9e9","title":"3. Принцип Дирихле","content":"\n## Определение\n\nПусть в 𝑛 ящиков рассаживают 𝑛 + 1 кроликов. Тогда в любом случае найдётся ящик с двумя или более кроликами.\n\n## Пример\n\nИмеются монеты: 1, 2, 5, 10 руб.\nКаково минимальное количество таких монет, чтобы всегда нашлись 6 монет одного достоинства?\n\n_Решение_  \nПредположим, что монет достоинством 1 не больше 5ти  \nи монет достоинством 2 не больше 5ти  \nи достоинством 5 не больше 5ти  \nи достоинством 10 не больше 5ти\n\nТогда в сумме получается 20, а чтобы было 6 монет одного достоинства тогда соответсвенно в одной из категорий будет 6 монет и в сумме получается 21.\n","date":"2020-04-27T00:00:00.000Z","path":"/3-princzip-dirihle/","icon":"null","image":"null","emoji":"👾","category":{"title":"math","path":"/category/math/"},"tags":[{"title":"math","path":"/tag/math/"},{"title":"combinatorics","path":"/tag/combinatorics/"}],"headings":[{"value":"Определение","anchor":"#определение"},{"value":"Пример","anchor":"#пример"}]}},{"node":{"id":"f4de4db0830ece2002433a6adeb916c4","title":"4. Основные комбинаторные величины","content":"\n## Определения\n\nИмеется массив А = {${a_{1}, ..., a_{n}}$}\n\n1. _k-сочетания без повторений_, $C_{n}^{k}$ - извлекаем сразу одновременно несколько элементов;\n2. _k-размещения без повторений_, $A_{n}^{k}$ - последовательно извлекаем несколько элементов и имеем вполне определенную последовательность элементов;\n3. _k-сочетания с повторениями_, $\\overline{C_{n}^{k}}$ - извлекаем сразу одновременно несколько элементов из массива с повторяющимися элементами;\n4. _k-размещения с повторениями_, $\\overline{A_{n}^{k}}$ - последовательно извлекаем несколько элементов из массива с повторяющимися элементами;\n\n## Факториал\n\n_n-факториал_ - это произведение чисел от 1 до n;\n\n$n! = (n-1)! \\times n$\n\n$5! = 1 \\times 2 \\times 3 \\times 4 \\times 5 = 120$\n\n$0! = 1, 1! = 1$\n","date":"2020-04-27T00:00:00.000Z","path":"/4-osnovnye-kombinatornye-velichiny/","icon":"null","image":"null","emoji":"👾","category":{"title":"math","path":"/category/math/"},"tags":[{"title":"math","path":"/tag/math/"},{"title":"combinatorics","path":"/tag/combinatorics/"}],"headings":[{"value":"Определения","anchor":"#определения"},{"value":"Факториал","anchor":"#факториал"}]}}]}},"relatedTag":{"id":"7b964d4365e95e31d4e1c1fa550404c5","title":"math","path":"/tag/math/","related":[]}},"context":{}}